…
Now the word cloud emphasis looks better than the previously, friend might be less relative important. Then we need to analyze the time period influence , partnerhood, martial and gender followed.

Reasons:

In the word cloud, today VS yesterday; Wife & husband, daughter and son attract my eyes which means people get happinese from these factors.

Part 2: Demographic Analysis & Sentimental Analysis:

## # A tibble: 439,489 x 11
##      wid word  gender marital parenthood reflection_peri~ country     n
##    <int> <chr> <chr>  <chr>   <chr>      <fct>            <chr>   <int>
##  1    53 happ~ m      married y          hours_24         USA       126
##  2   817 happ~ m      single  n          months_3         USA       121
##  3   280 life  m      married y          hours_24         IND       100
##  4   457 happ~ m      single  y          months_3         USA        82
##  5   954 time  m      married n          months_3         IND        77
##  6   627 happ~ m      married n          months_3         USA        71
##  7   954 roti  m      married n          months_3         IND        65
##  8  1633 happ~ m      married y          months_3         USA        63
##  9   120 event m      single  n          hours_24         BGD        56
## 10    90 happ~ m      married y          hours_24         USA        51
## # ... with 439,479 more rows, and 3 more variables: tf <dbl>, idf <dbl>,
## #   tf_idf <dbl>
…
